# 3ds Max Wavefront OBJ Exporter v0.97b - (c)2007 guruware
# File Created: 10.01.2019 23:12:59

newmtl wire_008008136
	Ns 32
	d 1
	Tr 0
	Tf 1 1 1
	illum 2
	Ka 0.0314 0.0314 0.5333
	Kd 0.0314 0.0314 0.5333
	Ks 0.3500 0.3500 0.3500
