# 3ds Max Wavefront OBJ Exporter v0.97b - (c)2007 guruware
# File Created: 11.04.2019 11:33:41

newmtl 02___Default
	Ns 10.0000
	Ni 1.5000
	d 1.0000
	Tr 0.0000
	Tf 1.0000 1.0000 1.0000 
	illum 2
	Ka 0.5882 0.5882 0.5882
	Kd 0.5882 0.5882 0.5882
	Ks 0.0000 0.0000 0.0000
	Ke 0.0000 0.0000 0.0000
	map_Ka D:\Desktop\On Going Projects\Textures\Textures\bark 012 - LOOP.jpg
	map_Kd D:\Desktop\On Going Projects\Textures\Textures\bark 012 - LOOP.jpg
	map_bump D:\Desktop\On Going Projects\Textures\Textures\bark 012 - LOOP NORMAL.jpg
	bump D:\Desktop\On Going Projects\Textures\Textures\bark 012 - LOOP NORMAL.jpg

newmtl 01___Default
	Ns 10.0000
	Ni 1.5000
	d 1.0000
	Tr 0.0000
	Tf 1.0000 1.0000 1.0000 
	illum 2
	Ka 0.5882 0.5882 0.5882
	Kd 0.5882 0.5882 0.5882
	Ks 0.0000 0.0000 0.0000
	Ke 0.0000 0.0000 0.0000
	map_Ka D:\Desktop\On Going Projects\Textures\Textures\LEAVES - WINTER - 003.png
	map_Kd D:\Desktop\On Going Projects\Textures\Textures\LEAVES - WINTER - 003.png
	map_Ks D:\Desktop\On Going Projects\Textures\Textures\LEAVES - WINTER - 003 SPEC.jpg
	map_bump D:\Desktop\On Going Projects\Textures\Textures\LEAVES - WINTER - 003 NORMAL.jpg
	bump D:\Desktop\On Going Projects\Textures\Textures\LEAVES - WINTER - 003 NORMAL.jpg
