# 3ds Max Wavefront OBJ Exporter v0.97b - (c)2007 guruware
# File Created: 18.01.2019 15:47:52

newmtl wire_048024015
	Ns 32
	d 1
	Tr 0
	Tf 1 1 1
	illum 2
	Ka 0.1882 0.0941 0.0588
	Kd 0.1882 0.0941 0.0588
	Ks 0.3500 0.3500 0.3500

newmtl wire_225087143
	Ns 32
	d 1
	Tr 0
	Tf 1 1 1
	illum 2
	Ka 0.8824 0.3412 0.5608
	Kd 0.8824 0.3412 0.5608
	Ks 0.3500 0.3500 0.3500
