# Blender MTL File: 'project_squirrel_magician_cycles_renderer.blend'
# Material Count: 13

newmtl Bags2_Mat
Ns 96.078431
Ka 1.000000 1.000000 1.000000
Kd 0.640000 0.640000 0.640000
Ks 0.000000 0.000000 0.000000
Ke 0.000000 0.000000 0.000000
Ni 1.000000
d 1.000000
illum 1
map_Kd C:\Users\st20119815\AppData\Local\Temp\Temp1_gbxh4w-Squirrel_Magician.zip\Squirrel_Magician\Textures\\Squirrel\Colormap_mh_Squirrel.png

newmtl Bags_Mat
Ns 96.078431
Ka 1.000000 1.000000 1.000000
Kd 0.640000 0.640000 0.640000
Ks 0.092593 0.092593 0.092593
Ke 0.000000 0.000000 0.000000
Ni 1.000000
d 1.000000
illum 2
map_Kd C:\Users\st20119815\AppData\Local\Temp\Temp1_gbxh4w-Squirrel_Magician.zip\Squirrel_Magician\Textures\\Squirrel\Squirrel_Normal.png
map_Bump -bm 5.000000 C:\\Users\\st20119815\\AppData\\Local\\Temp\\Temp1_gbxh4w-Squirrel_Magician.zip\\Squirrel_Magician\\Textures\\Squirrel\\Squirrel_Normal.png

newmtl Belt_Mat
Ns 96.078431
Ka 0.666667 0.666667 0.666667
Kd 0.800000 0.800000 0.800000
Ks 0.046296 0.046296 0.046296
Ke 0.121600 0.121600 0.121600
Ni 1.000000
d 1.000000
illum 2
map_Kd C:\Users\st20119815\AppData\Local\Temp\Temp1_gbxh4w-Squirrel_Magician.zip\Squirrel_Magician\Textures\\Squirrel\Squirrel_Normal.png
map_Bump -bm 5.000000 C:\\Users\\st20119815\\AppData\\Local\\Temp\\Temp1_gbxh4w-Squirrel_Magician.zip\\Squirrel_Magician\\Textures\\Squirrel\\Squirrel_Normal.png

newmtl Berry_Mat
Ns 96.078431
Ka 1.000000 1.000000 1.000000
Kd 0.640000 0.640000 0.640000
Ks 0.000000 0.000000 0.000000
Ke 0.000000 0.000000 0.000000
Ni 1.000000
d 1.000000
illum 1
map_Kd C:\Users\st20119815\AppData\Local\Temp\Temp1_gbxh4w-Squirrel_Magician.zip\Squirrel_Magician\Textures\\Squirrel\Colormap_mh_Squirrel.png

newmtl Coat_Mat
Ns 96.078431
Ka 1.000000 1.000000 1.000000
Kd 0.640000 0.640000 0.640000
Ks 0.500000 0.500000 0.500000
Ke 0.000000 0.000000 0.000000
Ni 1.000000
d 1.000000
illum 2
map_Kd C:\Users\st20119815\AppData\Local\Temp\Temp1_gbxh4w-Squirrel_Magician.zip\Squirrel_Magician\Textures\\Squirrel\Squirrel_Normal.png

newmtl Diamond
Ns 96.078431
Ka 1.000000 1.000000 1.000000
Kd 0.800000 0.800000 0.800000
Ks 1.000000 1.000000 1.000000
Ke 0.080000 0.080000 0.080000
Ni 1.000000
d 1.000000
illum 2

newmtl Earring_Mat
Ns 96.078431
Ka 1.000000 1.000000 1.000000
Kd 0.342375 0.144029 0.000000
Ks 0.814815 0.814815 0.814815
Ke 0.000000 0.000000 0.000000
Ni 1.000000
d 1.000000
illum 2

newmtl Eyes_Mat
Ns 96.078431
Ka 1.000000 1.000000 1.000000
Kd 0.640000 0.640000 0.640000
Ks 0.685185 0.685185 0.685185
Ke 0.000000 0.000000 0.000000
Ni 1.000000
d 1.000000
illum 2
map_Kd C:\Users\st20119815\AppData\Local\Temp\Temp1_gbxh4w-Squirrel_Magician.zip\Squirrel_Magician\Textures\\Squirrel\Colormap_Squirrel.png

newmtl Fell_Mat
Ns 96.078431
Ka 1.000000 1.000000 1.000000
Kd 0.640000 0.640000 0.640000
Ks 0.101852 0.101852 0.101852
Ke 0.000000 0.000000 0.000000
Ni 1.000000
d 0.000000
illum 2
map_Kd C:\Users\st20119815\AppData\Local\Temp\Temp1_gbxh4w-Squirrel_Magician.zip\Squirrel_Magician\Textures\\Squirrel\Colormap_mh_Squirrel.png
map_Bump -bm 4.146069 C:\\Users\\st20119815\\AppData\\Local\\Temp\\Temp1_gbxh4w-Squirrel_Magician.zip\\Squirrel_Magician\\Textures\\Squirrel\\Squirrel_Normal.png

newmtl Ketten_Mat
Ns 96.078431
Ka 1.000000 1.000000 1.000000
Kd 0.171223 0.171223 0.171223
Ks 0.500000 0.500000 0.500000
Ke 0.000000 0.000000 0.000000
Ni 1.000000
d 1.000000
illum 2

newmtl Kopfschmuck_Mat
Ns 96.078431
Ka 1.000000 1.000000 1.000000
Kd 0.527708 0.187217 0.000000
Ks 0.796296 0.796296 0.796296
Ke 0.000000 0.000000 0.000000
Ni 1.000000
d 1.000000
illum 2

newmtl Rope_Mat
Ns 96.078431
Ka 1.000000 1.000000 1.000000
Kd 0.640000 0.640000 0.640000
Ks 0.388889 0.388889 0.388889
Ke 0.000000 0.000000 0.000000
Ni 1.000000
d 1.000000
illum 2
map_Kd C:\Users\st20119815\AppData\Local\Temp\Temp1_gbxh4w-Squirrel_Magician.zip\Squirrel_Magician\Textures\\Squirrel\Colormap_mh_Squirrel.png

newmtl Saphire
Ns 96.078431
Ka 1.000000 1.000000 1.000000
Kd 0.070943 0.252936 0.055308
Ks 1.000000 1.000000 1.000000
Ke 0.000000 0.000000 0.000000
Ni 1.000000
d 1.000000
illum 2
