# 3ds Max Wavefront OBJ Exporter v0.97b - (c)2007 guruware
# File Created: 18.01.2019 15:47:52

mtllib tree01.mtl

#
# object Trunk
#

v  -6.4816 0.0000 3.1964
v  -4.8077 0.0000 -3.0423
v  4.7916 0.0000 -3.1603
v  4.8297 0.0000 7.5081
v  -3.9361 12.9320 -1.9711
v  4.1408 13.5616 -2.1239
v  4.3529 13.7520 6.2477
v  -5.0521 15.2400 3.7601
v  -3.8105 27.5235 -0.6761
v  2.3599 28.1531 -0.3484
v  3.8794 28.3435 4.7562
v  -3.7562 29.8315 2.8857
v  -3.8105 42.4342 -0.6761
v  2.3599 42.9495 -0.3484
v  3.8794 43.1399 4.7562
v  -3.7562 44.7422 2.8857
# 16 vertices

vn 0.0000 -1.0000 -0.0000
vn -0.0254 0.0842 -0.9961
vn -0.0123 0.0756 -0.9971
vn 0.9984 0.0499 -0.0264
vn 0.9994 0.0343 -0.0036
vn -0.2430 0.0802 0.9667
vn -0.3562 -0.0012 0.9344
vn -0.9685 0.0993 -0.2286
vn -0.9622 0.0862 -0.2582
vn 0.0439 0.0879 -0.9952
vn -0.0279 0.1174 -0.9927
vn 0.9460 0.1504 -0.2872
vn 0.9992 0.0298 -0.0260
vn -0.2199 0.0921 0.9712
vn -0.2431 0.0795 0.9667
vn -0.9955 0.0860 -0.0405
vn -0.9792 0.0263 -0.2013
vn 0.0530 0.0000 -0.9986
vn 0.9584 0.0000 -0.2853
vn -0.2379 0.0000 0.9713
vn -0.9999 0.0000 0.0153
vn -0.0412 0.8388 -0.5429
vn 0.2286 0.9679 -0.1042
# 23 vertex normals

vt 0.0000 0.0000 0.0000
vt 0.0000 1.0000 0.0000
vt 1.0000 1.0000 0.0000
vt 1.0000 0.0000 0.0000
# 4 texture coords

o Trunk
g Trunk
usemtl wire_048024015
s 1
f 1/1/1 2/2/1 3/3/1 
f 3/3/1 4/4/1 1/1/1 
s off
f 2/2/2 5/2/2 6/3/2 
f 6/3/3 3/3/3 2/2/3 
f 3/3/4 6/3/4 7/4/4 
f 7/4/5 4/4/5 3/3/5 
f 4/4/6 7/4/6 8/1/6 
f 8/1/7 1/1/7 4/4/7 
f 1/1/8 8/1/8 5/2/8 
f 5/2/9 2/2/9 1/1/9 
f 5/2/10 9/2/10 10/3/10 
f 10/3/11 6/3/11 5/2/11 
f 6/3/12 10/3/12 11/4/12 
f 11/4/13 7/4/13 6/3/13 
f 7/4/14 11/4/14 12/1/14 
f 12/1/15 8/1/15 7/4/15 
f 8/1/16 12/1/16 9/2/16 
f 9/2/17 5/2/17 8/1/17 
f 10/3/18 9/2/18 13/2/18 
f 13/2/18 14/3/18 10/3/18 
f 11/4/19 10/3/19 14/3/19 
f 14/3/19 15/4/19 11/4/19 
f 12/1/20 11/4/20 15/4/20 
f 15/4/20 16/1/20 12/1/20 
f 9/2/21 12/1/21 16/1/21 
f 16/1/21 13/2/21 9/2/21 
f 14/3/22 13/2/22 16/1/22 
f 16/1/23 15/4/23 14/3/23 
# 28 faces

#
# object Head
#

v  2.8400 22.3978 8.8974
v  -1.3410 22.3978 8.8974
v  -4.7235 22.3978 6.4399
v  -6.0156 22.3978 2.4635
v  -4.7235 22.3978 -1.5130
v  -1.3410 22.3978 -3.9705
v  2.8400 22.3978 -3.9705
v  6.2226 22.3978 -1.5130
v  7.5146 22.3978 2.4635
v  6.2226 22.3978 6.4399
v  10.2625 24.3359 -4.4481
v  12.5082 24.3359 2.4635
v  4.3832 24.3359 -8.7197
v  -2.8841 24.3359 -8.7197
v  -8.7635 24.3359 -4.4481
v  -11.0092 24.3359 2.4635
v  -8.7635 24.3359 9.3750
v  -2.8841 24.3359 13.6466
v  4.3832 24.3359 13.6466
v  10.2625 24.3359 9.3750
v  13.4744 26.9227 -6.7817
v  16.4783 26.9227 2.4635
v  5.6100 26.9227 -12.4955
v  -4.1109 26.9227 -12.4955
v  -11.9753 26.9227 -6.7817
v  -14.9792 26.9227 2.4635
v  -11.9753 26.9227 11.7086
v  -4.1109 26.9227 17.4224
v  5.6100 26.9227 17.4224
v  13.4744 26.9227 11.7086
v  15.5673 29.3044 -8.3023
v  19.0653 29.3044 2.4635
v  6.4094 29.3044 -14.9559
v  -4.9104 29.3044 -14.9559
v  -14.0682 29.3044 -8.3023
v  -17.5662 29.3044 2.4635
v  -14.0682 29.3044 13.2292
v  -4.9104 29.3044 19.8828
v  6.4094 29.3044 19.8828
v  15.5673 29.3044 13.2292
v  17.0009 31.9424 -9.3439
v  20.8373 31.9424 2.4635
v  6.9570 31.9424 -16.6412
v  -5.4579 31.9424 -16.6412
v  -15.5018 31.9424 -9.3439
v  -19.3383 31.9424 2.4635
v  -15.5018 31.9424 14.2708
v  -5.4579 31.9424 21.5681
v  6.9570 31.9424 21.5681
v  17.0009 31.9424 14.2707
v  18.5732 36.0330 -10.4862
v  22.7808 36.0330 2.4635
v  7.5576 36.0330 -18.4895
v  -6.0585 36.0330 -18.4895
v  -17.0742 36.0330 -10.4862
v  -21.2818 36.0330 2.4635
v  -17.0742 36.0330 15.4131
v  -6.0585 36.0330 23.4164
v  7.5576 36.0330 23.4164
v  18.5732 36.0330 15.4131
v  19.9528 42.8783 -11.4885
v  24.4860 42.8783 2.4635
v  8.0845 42.8783 -19.4642
v  -6.5855 42.8783 -20.1113
v  -18.4537 42.8783 -11.4885
v  -22.9870 42.8783 2.4635
v  -18.4537 42.8783 16.4154
v  -6.5855 42.8783 25.0382
v  8.0845 42.8783 25.0382
v  19.9528 42.8783 16.4154
v  19.9528 51.7573 -11.4885
v  23.1213 51.7573 2.1836
v  8.0845 51.7573 -20.1113
v  -6.5855 51.7573 -19.2972
v  -18.4537 51.7573 -11.4885
v  -22.5215 51.7573 2.5118
v  -17.8960 51.7573 15.8352
v  -6.5855 51.7573 25.0382
v  8.0845 51.7573 24.2472
v  19.9528 51.7573 16.4154
v  18.7347 69.6286 -10.6036
v  22.9804 69.6286 2.4634
v  7.6193 69.6286 -17.3912
v  -6.1202 69.6286 -18.6794
v  -16.6197 69.6286 -10.2392
v  -21.4814 69.6286 3.3959
v  -17.2357 69.6286 15.5305
v  -7.8970 69.6286 22.3757
v  7.6193 69.6286 23.6063
v  18.2817 69.6286 15.0809
v  15.8188 88.3537 -8.4850
v  17.8622 88.3537 2.4634
v  6.5055 88.3537 -15.2516
v  -5.0064 88.3537 -15.2516
v  -14.3198 88.3537 -8.4850
v  -17.8771 88.3537 2.4635
v  -14.3198 88.8356 13.4119
v  -5.0064 88.3537 20.1785
v  6.5055 88.3537 20.1785
v  15.8188 88.3537 12.6131
v  12.4289 103.5325 -6.0221
v  15.1860 103.5325 2.4634
v  5.2106 103.5325 -11.2665
v  -3.8141 103.5325 -9.9852
v  -10.9298 103.5325 -6.0221
v  -12.9825 103.5325 2.8600
v  -10.9298 103.5325 10.9490
v  -3.7116 103.5325 16.1934
v  5.8216 103.5325 16.1934
v  12.4289 103.5325 10.9490
v  7.3692 115.7797 -2.3461
v  8.9320 115.7797 2.4634
v  3.2780 115.7797 -5.3185
v  -1.7790 115.7797 -5.3185
v  -5.8702 115.7797 -2.3461
v  -7.4329 115.7797 2.4634
v  -5.8702 115.7797 7.2730
v  -1.7790 115.7797 10.2454
v  3.2780 115.7797 10.2454
v  7.3693 115.7797 7.2730
v  5.0163 120.4540 -0.6365
v  6.0235 120.4540 2.4634
v  2.3793 120.4540 -2.5524
v  -0.8802 120.4540 -2.5524
v  -3.5172 120.4540 -0.6365
v  -4.5245 120.4540 2.4634
v  -3.5172 120.4540 5.5634
v  -0.8802 120.4540 7.4793
v  2.3793 120.4540 7.4793
v  5.0163 120.4540 5.5634
v  2.6974 124.6821 1.0483
v  3.1572 124.6821 2.4634
v  1.4935 124.6821 0.1736
v  0.0055 124.6821 0.1736
v  0.7495 124.6821 0.1736
v  -1.1983 124.6821 1.0483
v  -1.6582 124.6821 2.4634
v  -1.1983 124.6821 3.8786
v  0.0055 124.6821 4.7533
v  1.4935 124.6821 4.7533
v  0.7495 124.6821 4.7533
v  2.6974 124.6821 3.8786
v  0.7495 125.4316 1.0483
v  0.7495 125.7825 2.4634
v  0.7495 125.4316 3.8786
# 145 vertices

vn 0.0000 -1.0000 -0.0000
vn 0.3593 -0.9259 -0.1168
vn 0.2221 -0.9259 -0.3057
vn 0.0000 -0.9259 -0.3778
vn -0.2221 -0.9259 -0.3057
vn -0.3593 -0.9259 -0.1168
vn -0.3593 -0.9259 0.1168
vn -0.2221 -0.9259 0.3057
vn 0.0000 -0.9259 0.3778
vn 0.2221 -0.9259 0.3057
vn 0.3593 -0.9259 0.1168
vn 0.5375 -0.8250 -0.1747
vn 0.3322 -0.8250 -0.4573
vn 0.0000 -0.8250 -0.5652
vn -0.3322 -0.8250 -0.4573
vn -0.5375 -0.8250 -0.1747
vn -0.5375 -0.8250 0.1747
vn -0.3322 -0.8250 0.4573
vn 0.0000 -0.8250 0.5652
vn 0.3322 -0.8250 0.4573
vn 0.5375 -0.8250 0.1747
vn 0.6615 -0.7185 -0.2149
vn 0.4088 -0.7185 -0.5627
vn 0.0000 -0.7185 -0.6955
vn -0.4088 -0.7185 -0.5627
vn -0.6615 -0.7185 -0.2149
vn -0.6615 -0.7185 0.2149
vn -0.4088 -0.7185 0.5627
vn 0.0000 -0.7185 0.6955
vn 0.4088 -0.7185 0.5627
vn 0.6615 -0.7185 0.2149
vn 0.8015 -0.5384 -0.2604
vn 0.4953 -0.5384 -0.6818
vn 0.0000 -0.5384 -0.8427
vn -0.4953 -0.5384 -0.6818
vn -0.8015 -0.5384 -0.2604
vn -0.8015 -0.5384 0.2604
vn -0.4953 -0.5384 0.6818
vn 0.0000 -0.5384 0.8427
vn 0.4953 -0.5384 0.6818
vn 0.8015 -0.5384 0.2604
vn 0.8667 -0.4118 -0.2816
vn 0.5356 -0.4118 -0.7372
vn 0.0000 -0.4118 -0.9113
vn -0.5356 -0.4118 -0.7372
vn -0.8667 -0.4118 -0.2816
vn -0.8667 -0.4118 0.2816
vn -0.5356 -0.4118 0.7372
vn 0.0000 -0.4118 0.9113
vn 0.5356 -0.4118 0.7372
vn 0.8667 -0.4118 0.2816
vn 0.9254 -0.2305 -0.3007
vn 0.5804 -0.1584 -0.7988
vn 0.5431 -0.2278 -0.8082
vn 0.0000 -0.2305 -0.9731
vn 0.0436 -0.1441 -0.9886
vn -0.5720 -0.2305 -0.7872
vn -0.9254 -0.2305 -0.3007
vn -0.9254 -0.2305 0.3007
vn -0.5720 -0.2305 0.7872
vn 0.0000 -0.2305 0.9731
vn 0.5720 -0.2305 0.7872
vn 0.9254 -0.2305 0.3007
vn 0.9511 0.0000 -0.3090
vn 0.9644 0.1412 -0.2235
vn 0.5568 -0.0604 -0.8285
vn 0.5878 -0.0000 -0.8090
vn 0.0439 0.0912 -0.9949
vn -0.0553 -0.0726 -0.9958
vn -0.5878 -0.0000 -0.8090
vn -0.5480 0.0764 -0.8330
vn -0.9498 0.0515 -0.3086
vn -0.9603 -0.0000 -0.2790
vn -0.9480 0.0797 0.3080
vn -0.9436 0.0477 0.3276
vn -0.5878 0.0000 0.8090
vn -0.6286 0.0900 0.7725
vn 0.0000 0.0887 0.9961
vn 0.0538 0.0000 0.9985
vn 0.5878 0.0000 0.8090
vn 0.5493 0.0742 0.8324
vn 0.9397 0.1541 0.3053
vn 0.9761 0.0000 0.2173
vn 0.9713 0.0773 -0.2251
vn 0.9510 0.0123 -0.3090
vn 0.5822 0.1371 -0.8014
vn 0.5196 0.0775 -0.8509
vn -0.0554 0.0359 -0.9978
vn 0.0923 0.1522 -0.9840
vn -0.5461 0.1141 -0.8299
vn -0.6259 0.0432 -0.7787
vn -0.9580 0.0695 -0.2783
vn -0.9352 0.1193 -0.3335
vn -0.9439 0.0405 0.3277
vn -0.9432 0.0386 0.3300
vn -0.6296 0.0691 0.7738
vn -0.5908 0.0356 0.8060
vn 0.0538 0.0372 0.9979
vn -0.0783 0.1413 0.9869
vn 0.5472 0.1131 0.8293
vn 0.6239 0.0442 0.7803
vn 0.9761 0.0043 0.2173
vn 0.9311 0.1130 0.3467
vn 0.9355 0.1801 -0.3040
vn 0.9494 0.2595 -0.1772
vn 0.5169 0.1275 -0.8465
vn 0.5782 0.1801 -0.7958
vn 0.0919 0.1740 -0.9804
vn 0.0000 0.1135 -0.9935
vn -0.6196 0.1483 -0.7708
vn -0.5782 0.1801 -0.7958
vn -0.9294 0.1624 -0.3314
vn -0.9411 0.1442 -0.3058
vn -0.9290 0.1769 0.3250
vn -0.9353 0.1947 0.2953
vn -0.5812 0.1828 0.7929
vn -0.5727 0.1753 0.8008
vn -0.0778 0.1750 0.9815
vn 0.0000 0.1165 0.9932
vn 0.6141 0.1820 0.7680
vn 0.6206 0.1768 0.7640
vn 0.9078 0.2481 0.3381
vn 0.9688 0.1531 0.1950
vn 0.9538 0.2419 -0.1780
vn 0.9380 0.1654 -0.3048
vn 0.5685 0.2539 -0.7825
vn 0.0000 0.3278 -0.9448
vn -0.1364 0.2407 -0.9610
vn -0.5685 0.2539 -0.7825
vn -0.4605 0.3230 -0.8268
vn -0.9072 0.3002 -0.2948
vn -0.9443 0.2463 -0.2182
vn -0.9215 0.2608 0.2879
vn -0.9268 0.2927 0.2352
vn -0.5597 0.2548 0.7885
vn -0.5673 0.2617 0.7808
vn 0.0000 0.2539 0.9672
vn 0.6150 0.2204 0.7571
vn 0.6054 0.2275 0.7627
vn 0.9660 0.1703 0.1945
vn 0.9235 0.2391 0.3001
vn 0.8555 0.4369 -0.2780
vn 0.5287 0.4369 -0.7277
vn -0.1305 0.3719 -0.9191
vn 0.0000 0.4369 -0.8995
vn -0.4415 0.4203 -0.7927
vn -0.5446 0.3761 -0.7496
vn -0.8937 0.3983 -0.2065
vn -0.8555 0.4369 -0.2780
vn -0.8758 0.4285 0.2222
vn -0.8702 0.4035 0.2827
vn -0.5287 0.4369 0.7277
vn 0.0000 0.4369 0.8995
vn 0.5578 0.4414 0.7028
vn 0.5226 0.4578 0.7192
vn 0.8555 0.4369 0.2780
vn 0.8185 0.5093 -0.2659
vn 0.5058 0.5093 -0.6962
vn 0.0000 0.5093 -0.8606
vn -0.5058 0.5093 -0.6962
vn -0.8185 0.5093 -0.2659
vn -0.8185 0.5093 0.2659
vn -0.5058 0.5093 0.6962
vn 0.0000 0.5093 0.8606
vn 0.5058 0.5093 0.6962
vn 0.8185 0.5093 0.2659
vn 0.7993 0.5419 -0.2597
vn 0.4940 0.5419 -0.6799
vn 0.0000 0.5419 -0.8405
vn -0.0000 0.5419 -0.8405
vn -0.4940 0.5419 -0.6799
vn -0.7993 0.5419 -0.2597
vn -0.7993 0.5419 0.2597
vn -0.4940 0.5419 0.6799
vn 0.0000 0.5419 0.8405
vn 0.4940 0.5419 0.6799
vn 0.7993 0.5419 0.2597
vn 0.3499 0.9093 -0.2254
vn 0.4119 0.9013 -0.1338
vn 0.3499 0.9093 0.2254
vn 0.4119 0.9013 0.1338
vn -0.4119 0.9013 -0.1338
vn -0.3499 0.9093 -0.2254
vn -0.4119 0.9013 0.1338
vn -0.3499 0.9093 0.2254
vn 0.0000 0.7593 0.6507
vn -0.3219 0.8367 0.4431
vn 0.3219 0.8367 0.4431
vn -0.0000 0.7593 -0.6507
vn 0.3219 0.8367 -0.4431
vn -0.3219 0.8367 -0.4431
vn 0.0000 0.7593 -0.6507
# 192 vertex normals

vt 0.1219 0.0000 -0.6180
vt 0.0500 0.0000 -1.0000
vt 0.1500 0.0000 -1.0000
vt 0.3837 0.0000 -0.6180
vt 0.6618 0.0000 0.0000
vt 0.8781 0.0000 0.6180
vt 0.9500 0.0000 1.0000
vt 0.8500 0.0000 1.0000
vt 0.7500 0.0000 1.0000
vt 0.3382 0.0000 0.0000
vt 0.9141 0.0000 0.8090
vt 0.0859 0.0000 -0.8090
vt 0.7559 0.0000 0.5000
vt 0.5668 0.0000 0.1910
vt 0.2441 0.0000 -0.5000
# 15 texture coords

o Head
g Head
usemtl wire_225087143
s 1
f 17/5/24 18/6/24 19/7/24 
f 19/7/24 20/8/24 21/9/24 
f 21/9/24 22/10/24 23/11/24 
f 23/11/24 24/12/24 25/13/24 
f 21/9/24 23/11/24 25/13/24 
f 19/7/24 21/9/24 25/13/24 
f 17/5/24 19/7/24 25/13/24 
f 26/14/24 17/5/24 25/13/24 
s off
f 25/13/25 24/12/25 27/12/25 
f 27/12/25 28/13/25 25/13/25 
f 24/12/26 23/11/26 29/11/26 
f 29/11/26 27/12/26 24/12/26 
f 23/11/27 22/10/27 30/10/27 
f 30/10/27 29/11/27 23/11/27 
f 22/10/28 21/9/28 31/9/28 
f 31/9/28 30/10/28 22/10/28 
f 21/9/29 20/8/29 32/8/29 
f 32/8/29 31/9/29 21/9/29 
f 20/8/30 19/7/30 33/7/30 
f 33/7/30 32/8/30 20/8/30 
f 19/7/31 18/6/31 34/6/31 
f 34/6/31 33/7/31 19/7/31 
f 18/6/32 17/5/32 35/5/32 
f 35/5/32 34/6/32 18/6/32 
f 17/5/33 26/14/33 36/14/33 
f 36/14/33 35/5/33 17/5/33 
f 26/14/34 25/13/34 28/13/34 
f 28/13/34 36/14/34 26/14/34 
f 28/13/35 27/12/35 37/12/35 
f 37/12/35 38/13/35 28/13/35 
f 27/12/36 29/11/36 39/11/36 
f 39/11/36 37/12/36 27/12/36 
f 29/11/37 30/10/37 40/10/37 
f 40/10/37 39/11/37 29/11/37 
f 30/10/38 31/9/38 41/9/38 
f 41/9/38 40/10/38 30/10/38 
f 31/9/39 32/8/39 42/8/39 
f 42/8/39 41/9/39 31/9/39 
f 32/8/40 33/7/40 43/7/40 
f 43/7/40 42/8/40 32/8/40 
f 33/7/41 34/6/41 44/6/41 
f 44/6/41 43/7/41 33/7/41 
f 34/6/42 35/5/42 45/5/42 
f 45/5/42 44/6/42 34/6/42 
f 35/5/43 36/14/43 46/14/43 
f 46/14/43 45/5/43 35/5/43 
f 36/14/44 28/13/44 38/13/44 
f 38/13/44 46/14/44 36/14/44 
f 38/13/45 37/12/45 47/12/45 
f 47/12/45 48/13/45 38/13/45 
f 37/12/46 39/11/46 49/11/46 
f 49/11/46 47/12/46 37/12/46 
f 39/11/47 40/10/47 50/10/47 
f 50/10/47 49/11/47 39/11/47 
f 40/10/48 41/9/48 51/9/48 
f 51/9/48 50/10/48 40/10/48 
f 41/9/49 42/8/49 52/8/49 
f 52/8/49 51/9/49 41/9/49 
f 42/8/50 43/7/50 53/7/50 
f 53/7/50 52/8/50 42/8/50 
f 43/7/51 44/6/51 54/6/51 
f 54/6/51 53/7/51 43/7/51 
f 44/6/52 45/5/52 55/5/52 
f 55/5/52 54/6/52 44/6/52 
f 45/5/53 46/14/53 56/14/53 
f 56/14/53 55/5/53 45/5/53 
f 46/14/54 38/13/54 48/13/54 
f 48/13/54 56/14/54 46/14/54 
f 48/13/55 47/12/55 57/12/55 
f 57/12/55 58/13/55 48/13/55 
f 47/12/56 49/11/56 59/11/56 
f 59/11/56 57/12/56 47/12/56 
f 49/11/57 50/10/57 60/10/57 
f 60/10/57 59/11/57 49/11/57 
f 50/10/58 51/9/58 61/9/58 
f 61/9/58 60/10/58 50/10/58 
f 51/9/59 52/8/59 62/8/59 
f 62/8/59 61/9/59 51/9/59 
f 52/8/60 53/7/60 63/7/60 
f 63/7/60 62/8/60 52/8/60 
f 53/7/61 54/6/61 64/6/61 
f 64/6/61 63/7/61 53/7/61 
f 54/6/62 55/5/62 65/5/62 
f 65/5/62 64/6/62 54/6/62 
f 55/5/63 56/14/63 66/14/63 
f 66/14/63 65/5/63 55/5/63 
f 56/14/64 48/13/64 58/13/64 
f 58/13/64 66/14/64 56/14/64 
f 58/13/65 57/12/65 67/12/65 
f 67/12/65 68/13/65 58/13/65 
f 57/12/66 59/11/66 69/11/66 
f 69/11/66 67/12/66 57/12/66 
f 59/11/67 60/10/67 70/10/67 
f 70/10/67 69/11/67 59/11/67 
f 60/10/68 61/9/68 71/9/68 
f 71/9/68 70/10/68 60/10/68 
f 61/9/69 62/8/69 72/8/69 
f 72/8/69 71/9/69 61/9/69 
f 62/8/70 63/7/70 73/7/70 
f 73/7/70 72/8/70 62/8/70 
f 63/7/71 64/6/71 74/6/71 
f 74/6/71 73/7/71 63/7/71 
f 64/6/72 65/5/72 75/5/72 
f 75/5/72 74/6/72 64/6/72 
f 65/5/73 66/14/73 76/14/73 
f 76/14/73 75/5/73 65/5/73 
f 66/14/74 58/13/74 68/13/74 
f 68/13/74 76/14/74 66/14/74 
f 68/13/75 67/12/75 77/12/75 
f 77/12/75 78/13/75 68/13/75 
f 67/12/76 69/11/76 79/11/76 
f 79/11/77 77/12/77 67/12/77 
f 69/11/78 70/10/78 80/10/78 
f 80/10/79 79/11/79 69/11/79 
f 70/10/80 71/9/80 81/9/80 
f 81/9/80 80/10/80 70/10/80 
f 71/9/81 72/8/81 82/8/81 
f 82/8/81 81/9/81 71/9/81 
f 72/8/82 73/7/82 83/7/82 
f 83/7/82 82/8/82 72/8/82 
f 73/7/83 74/6/83 84/6/83 
f 84/6/83 83/7/83 73/7/83 
f 74/6/84 75/5/84 85/5/84 
f 85/5/84 84/6/84 74/6/84 
f 75/5/85 76/14/85 86/14/85 
f 86/14/85 85/5/85 75/5/85 
f 76/14/86 68/13/86 78/13/86 
f 78/13/86 86/14/86 76/14/86 
f 78/13/87 77/12/87 87/12/87 
f 87/12/88 88/13/88 78/13/88 
f 77/12/89 79/11/89 89/11/89 
f 89/11/90 87/12/90 77/12/90 
f 79/11/91 80/10/91 90/10/91 
f 90/10/92 89/11/92 79/11/92 
f 80/10/93 81/9/93 91/9/93 
f 91/9/94 90/10/94 80/10/94 
f 81/9/95 82/8/95 92/8/95 
f 92/8/96 91/9/96 81/9/96 
f 82/8/97 83/7/97 93/7/97 
f 93/7/98 92/8/98 82/8/98 
f 83/7/99 84/6/99 94/6/99 
f 94/6/100 93/7/100 83/7/100 
f 84/6/101 85/5/101 95/5/101 
f 95/5/102 94/6/102 84/6/102 
f 85/5/103 86/14/103 96/14/103 
f 96/14/104 95/5/104 85/5/104 
f 86/14/105 78/13/105 88/13/105 
f 88/13/106 96/14/106 86/14/106 
f 88/13/107 87/12/107 97/12/107 
f 97/12/108 98/13/108 88/13/108 
f 87/12/109 89/11/109 99/11/109 
f 99/11/110 97/12/110 87/12/110 
f 89/11/111 90/10/111 100/10/111 
f 100/10/112 99/11/112 89/11/112 
f 90/10/113 91/9/113 101/9/113 
f 101/9/114 100/10/114 90/10/114 
f 91/9/115 92/8/115 102/8/115 
f 102/8/116 101/9/116 91/9/116 
f 92/8/117 93/7/117 103/7/117 
f 103/7/118 102/8/118 92/8/118 
f 93/7/119 94/6/119 104/6/119 
f 104/6/120 103/7/120 93/7/120 
f 94/6/121 95/5/121 105/5/121 
f 105/5/122 104/6/122 94/6/122 
f 95/5/123 96/14/123 106/14/123 
f 106/14/124 105/5/124 95/5/124 
f 96/14/125 88/13/125 98/13/125 
f 98/13/126 106/14/126 96/14/126 
f 98/13/127 97/12/127 107/12/127 
f 107/12/128 108/13/128 98/13/128 
f 97/12/129 99/11/129 109/11/129 
f 109/11/130 107/12/130 97/12/130 
f 99/11/131 100/10/131 110/10/131 
f 110/10/132 109/11/132 99/11/132 
f 100/10/133 101/9/133 111/9/133 
f 111/9/134 110/10/134 100/10/134 
f 101/9/135 102/8/135 112/8/135 
f 112/8/136 111/9/136 101/9/136 
f 102/8/137 103/7/137 113/7/137 
f 113/7/138 112/8/138 102/8/138 
f 103/7/139 104/6/139 114/6/139 
f 114/6/140 113/7/140 103/7/140 
f 104/6/141 105/5/141 115/5/141 
f 115/5/142 114/6/142 104/6/142 
f 105/5/143 106/14/143 116/14/143 
f 116/14/144 115/5/144 105/5/144 
f 106/14/145 98/13/145 108/13/145 
f 108/13/146 116/14/146 106/14/146 
f 108/13/147 107/12/147 117/12/147 
f 117/12/148 118/13/148 108/13/148 
f 107/12/149 109/11/149 119/11/149 
f 119/11/149 117/12/149 107/12/149 
f 109/11/150 110/10/150 120/10/150 
f 120/10/151 119/11/151 109/11/151 
f 110/10/152 111/9/152 121/9/152 
f 121/9/153 120/10/153 110/10/153 
f 111/9/154 112/8/154 122/8/154 
f 122/8/155 121/9/155 111/9/155 
f 112/8/156 113/7/156 123/7/156 
f 123/7/157 122/8/157 112/8/157 
f 113/7/158 114/6/158 124/6/158 
f 124/6/159 123/7/159 113/7/159 
f 114/6/160 115/5/160 125/5/160 
f 125/5/160 124/6/160 114/6/160 
f 115/5/161 116/14/161 126/14/161 
f 126/14/162 125/5/162 115/5/162 
f 116/14/163 108/13/163 118/13/163 
f 118/13/164 126/14/164 116/14/164 
f 118/13/165 117/12/165 127/12/165 
f 127/12/165 128/13/165 118/13/165 
f 117/12/166 119/11/166 129/11/166 
f 129/11/166 127/12/166 117/12/166 
f 119/11/167 120/10/167 130/10/167 
f 130/10/168 129/11/168 119/11/168 
f 120/10/169 121/9/169 131/9/169 
f 131/9/170 130/10/170 120/10/170 
f 121/9/171 122/8/171 132/8/171 
f 132/8/172 131/9/172 121/9/172 
f 122/8/173 123/7/173 133/7/173 
f 133/7/174 132/8/174 122/8/174 
f 123/7/175 124/6/175 134/6/175 
f 134/6/175 133/7/175 123/7/175 
f 124/6/176 125/5/176 135/5/176 
f 135/5/176 134/6/176 124/6/176 
f 125/5/177 126/14/177 136/14/177 
f 136/14/178 135/5/178 125/5/178 
f 126/14/179 118/13/179 128/13/179 
f 128/13/179 136/14/179 126/14/179 
f 128/13/180 127/12/180 137/12/180 
f 137/12/180 138/13/180 128/13/180 
f 127/12/181 129/11/181 139/11/181 
f 139/11/181 137/12/181 127/12/181 
f 129/11/182 130/10/182 140/10/182 
f 140/10/182 139/11/182 129/11/182 
f 130/10/183 131/9/183 141/9/183 
f 141/9/183 140/10/183 130/10/183 
f 131/9/184 132/8/184 142/8/184 
f 142/8/184 141/9/184 131/9/184 
f 132/8/185 133/7/185 143/7/185 
f 143/7/185 142/8/185 132/8/185 
f 133/7/186 134/6/186 144/6/186 
f 144/6/186 143/7/186 133/7/186 
f 134/6/187 135/5/187 145/5/187 
f 145/5/187 144/6/187 134/6/187 
f 135/5/188 136/14/188 146/14/188 
f 146/14/188 145/5/188 135/5/188 
f 136/14/189 128/13/189 138/13/189 
f 138/13/189 146/14/189 136/14/189 
f 138/13/190 137/12/190 147/12/190 
f 147/12/190 148/13/190 138/13/190 
f 137/12/191 139/11/191 149/11/191 
f 149/11/191 147/12/191 137/12/191 
f 139/11/192 140/10/192 150/10/192 
f 139/11/192 150/10/192 151/15/192 
f 139/11/193 151/15/193 149/11/193 
f 140/10/194 141/9/194 152/9/194 
f 152/9/194 150/10/194 140/10/194 
f 141/9/195 142/8/195 153/8/195 
f 153/8/195 152/9/195 141/9/195 
f 142/8/196 143/7/196 154/7/196 
f 154/7/196 153/8/196 142/8/196 
f 143/7/197 144/6/197 155/6/197 
f 155/6/197 154/7/197 143/7/197 
f 144/6/198 145/5/198 156/5/198 
f 144/6/198 156/5/198 157/16/198 
f 144/6/198 157/16/198 155/6/198 
f 145/5/199 146/14/199 158/14/199 
f 158/14/199 156/5/199 145/5/199 
f 146/14/200 138/13/200 148/13/200 
f 148/13/200 158/14/200 146/14/200 
f 147/12/201 159/17/201 160/18/201 
f 160/18/202 148/13/202 147/12/202 
f 160/18/203 161/19/203 158/14/203 
f 158/14/204 148/13/204 160/18/204 
f 152/9/205 153/8/205 160/18/205 
f 160/18/206 159/17/206 152/9/206 
f 160/18/207 153/8/207 154/7/207 
f 154/7/208 161/19/208 160/18/208 
f 155/6/209 157/16/209 161/19/209 
f 161/19/210 154/7/210 155/6/210 
f 156/5/211 158/14/211 161/19/211 
f 161/19/209 157/16/209 156/5/209 
f 149/11/212 151/15/212 159/17/212 
f 159/17/213 147/12/213 149/11/213 
f 150/10/214 152/9/214 159/17/214 
f 159/17/215 151/15/215 150/10/215 
# 286 faces

