# 3ds Max Wavefront OBJ Exporter v0.97b - (c)2007 guruware
# File Created: 20.03.2019 20:25:59

newmtl wire_225088199
	Ns 32
	d 1
	Tr 0
	Tf 1 1 1
	illum 2
	Ka 0.8824 0.3451 0.7804
	Kd 0.8824 0.3451 0.7804
	Ks 0.3500 0.3500 0.3500
