# 3ds Max Wavefront OBJ Exporter v0.97b - (c)2007 guruware
# File Created: 18.02.2019 12:08:48

newmtl 01___Default
	Ns 10.0000
	Ni 1.5000
	d 1.0000
	Tr 0.0000
	Tf 1.0000 1.0000 1.0000 
	illum 2
	Ka 0.5882 0.5882 0.5882
	Kd 0.5882 0.5882 0.5882
	Ks 0.0000 0.0000 0.0000
	Ke 0.0000 0.0000 0.0000
	map_Ka E:\Desktop\On Going Projects\WipeOut\horizonsengine\horizonsengine\Main\Main\Textures\Leather.jpg
	map_Kd E:\Desktop\On Going Projects\WipeOut\horizonsengine\horizonsengine\Main\Main\Textures\Leather.jpg
	map_Ks E:\Desktop\On Going Projects\WipeOut\horizonsengine\horizonsengine\Main\Main\Textures\Leather_s.jpg
	map_bump E:\Desktop\On Going Projects\WipeOut\horizonsengine\horizonsengine\Main\Main\Textures\Leather_normal.jpg
	bump E:\Desktop\On Going Projects\WipeOut\horizonsengine\horizonsengine\Main\Main\Textures\Leather_normal.jpg
