# 3ds Max Wavefront OBJ Exporter v0.97b - (c)2007 guruware
# File Created: 14.01.2019 15:46:41

newmtl Material__25
	Ns 10.0000
	Ni 1.5000
	d 1.0000
	Tr 0.0000
	Tf 1.0000 1.0000 1.0000 
	illum 2
	Ka 0.5880 0.5880 0.5880
	Kd 0.5880 0.5880 0.5880
	Ks 0.0000 0.0000 0.0000
	Ke 0.0000 0.0000 0.0000
	map_Ka W:\Student\2017-18\st20123567\OpenGl Development\horizonsengine\horizonsengine\Main\Main\Textures\Ship.png
	map_Kd W:\Student\2017-18\st20123567\OpenGl Development\horizonsengine\horizonsengine\Main\Main\Textures\Ship.png

newmtl wire_088144225
	Ns 32
	d 1
	Tr 0
	Tf 1 1 1
	illum 2
	Ka 0.3451 0.5647 0.8824
	Kd 0.3451 0.5647 0.8824
	Ks 0.3500 0.3500 0.3500

newmtl wire_108008136
	Ns 32
	d 1
	Tr 0
	Tf 1 1 1
	illum 2
	Ka 0.4235 0.0314 0.5333
	Kd 0.4235 0.0314 0.5333
	Ks 0.3500 0.3500 0.3500

newmtl wire_028149177
	Ns 32
	d 1
	Tr 0
	Tf 1 1 1
	illum 2
	Ka 0.1098 0.5843 0.6941
	Kd 0.1098 0.5843 0.6941
	Ks 0.3500 0.3500 0.3500
